…
```
## The following objects are masked from 'package:base':
## 
##     intersect, setdiff, setequal, union
```

```r
count(FinRegulatorData, country)
```

```
## # A tibble: 83 x 2
##        country     n
##         <fctr> <int>
##  1 Afghanistan    20
##  2     Albania    20
##  3   Argentina    20
##  4   Australia    20
##  5     Austria    20
##  6     Bahamas    20
##  7     Bahrain    20
##  8  Bangladesh    20
##  9    Barbados    20
## 10     Belgium    20
## # ... with 73 more rows
```
