…
Then, I'm going to turn this into a data frame we can (sort of) use.


```r
a<-data.frame(sb)
names(a)<-a[2,]
df<-slice(a, 3:length(a$RESULT))
df
```

```
## # A tibble: 51 x 4
##      NO.          DATE                          SITE
##    <chr>         <chr>                         <chr>
##  1     I Jan. 15, 1967 Los Angeles Memorial Coliseum
##  2    II Jan. 14, 1968           Orange Bowl (Miami)
##  3   III Jan. 12, 1969           Orange Bowl (Miami)
##  4    IV Jan. 11, 1970  Tulane Stadium (New Orleans)
##  5     V Jan. 17, 1971           Orange Bowl (Miami)
##  6    VI Jan. 16, 1972  Tulane Stadium (New Orleans)
##  7   VII Jan. 14, 1973 Los Angeles Memorial Coliseum
##  8  VIII Jan. 13, 1974        Rice Stadium (Houston)
##  9    IX Jan. 12, 1975  Tulane Stadium (New Orleans)
## 10     X Jan. 18, 1976           Orange Bowl (Miami)
## # ... with 41 more rows, and 1 more variables: RESULT <chr>
```
…
It will go character by character until it finds the last space of the string.


```r
clean<-df %>%
  separate(RESULT, into=c("Team1", "Team2"), sep=", ") %>%
  # After splitting this way, I want the last 'word' from each column
  separate(Team1, into=c("Team1", "Team1_Score"),sep="[ ](?=[^ ]+$)") %>%
  separate(Team2, into=c("Team2", "Team2_Score"),sep="[ ](?=[^ ]+$)")

clean
```

```
## # A tibble: 51 x 7
##      NO.          DATE                          SITE         Team1
##  * <chr>         <chr>                         <chr>         <chr>
##  1     I Jan. 15, 1967 Los Angeles Memorial Coliseum     Green Bay
##  2    II Jan. 14, 1968           Orange Bowl (Miami)     Green Bay
##  3   III Jan. 12, 1969           Orange Bowl (Miami) New York Jets
##  4    IV Jan. 11, 1970  Tulane Stadium (New Orleans)   Kansas City
##  5     V Jan. 17, 1971           Orange Bowl (Miami)     Baltimore
##  6    VI Jan. 16, 1972  Tulane Stadium (New Orleans)        Dallas
##  7   VII Jan. 14, 1973 Los Angeles Memorial Coliseum         Miami
##  8  VIII Jan. 13, 1974        Rice Stadium (Houston)         Miami
##  9    IX Jan. 12, 1975  Tulane Stadium (New Orleans)    Pittsburgh
## 10     X Jan. 18, 1976           Orange Bowl (Miami)    Pittsburgh
## # ... with 41 more rows, and 3 more variables: Team1_Score <chr>,
## #   Team2 <chr>, Team2_Score <chr>
```
…
Now that we've converted our columns to numeric, we can use ```dplyr``` and ```tidyr``` to process our data.


```r
df %>%
  count(Team1) %>%
  arrange(desc(n))
```

```
## # A tibble: 25 x 2
##              Team1     n
##              <chr> <int>
##  1          Dallas     5
##  2      Pittsburgh     5
##  3   San Francisco     5
##  4 New York Giants     4
##  5       Green Bay     3
##  6     New England     3
##  7      Washington     3
##  8       Baltimore     2
##  9          Denver     2
## 10           Miami     2
## # ... with 15 more rows
```
…
